riscv32/mips32.sim/sim_1/behav/xsim/mips.vcd
$date
   Thu Apr 29 23:06:05 2021
$end
$version
  2019.1
$end
$timescale
  1ps
$end
$scope module test_risc32 $end
$var reg 1 ! clk1 $end
$var reg 1 " clk2 $end
$var integer 32 # k $end
$scope module mips $end
$var wire 1 $ clk1 $end
$var wire 1 % clk2 $end
$var reg 32 & PC [31:0] $end
$var reg 32 ' IF_ID_IR [31:0] $end
$var reg 32 ( IF_ID_NPC [31:0] $end
$var reg 32 ) ID_EX_IR [31:0] $end
$var reg 32 * ID_EX_NPC [31:0] $end
$var reg 32 + ID_EX_A [31:0] $end
$var reg 32 , ID_EX_B [31:0] $end
$var reg 32 - ID_EX_Imm [31:0] $end
$var reg 3 . ID_EX_type [2:0] $end
$var reg 3 / EX_MEM_type [2:0] $end
$var reg 3 0 MEM_WB_type [2:0] $end
$var reg 32 1 EX_MEM_IR [31:0] $end
$var reg 32 2 EX_MEM_ALUOut [31:0] $end
$var reg 32 3 EX_MEM_B [31:0] $end
$var reg 1 4 EX_MEM_cond $end
$var reg 32 5 MEM_WB_IR [31:0] $end
$var reg 32 6 MEM_WB_ALUOut [31:0] $end
$var reg 32 7 MEM_WB_LMD [31:0] $end
$var reg 1 8 HALTED $end
$var reg 1 9 TAKEN_BRANCH $end
$var parameter 3 : ADD [2:0] $end
$var parameter 3 ; SUB [2:0] $end
$var parameter 3 < AND [2:0] $end
$var parameter 3 = OR [2:0] $end
$var parameter 3 > SLT [2:0] $end
$var parameter 3 ? ADDI [2:0] $end
$var parameter 3 @ SLTI [2:0] $end
$var parameter 3 A LW [2:0] $end
$var parameter 3 B SW [2:0] $end
$var parameter 3 C BEQZ [2:0] $end
$var parameter 3 D HLT [2:0] $end
$var parameter 7 E RR_ALU [6:0] $end
$var parameter 7 F RM_ALU [6:0] $end
$var parameter 7 G LOAD [6:0] $end
$var parameter 7 H STORE [6:0] $end
$var parameter 7 I BRANCH [6:0] $end
$var parameter 7 J HALT [6:0] $end
$upscope $end
$upscope $end
$enddefinitions $end
#0
$dumpvars
0!
0"
bx #
0$
0%
b0 &
bx '
bx (
bx )
bx *
bx +
bx ,
bx -
bx .
bx /
bx 0
bx 1
bx 2
bx 3
x4
bx 5
bx 6
bx 7
08
09
b0 :
b1 ;
b111 <
b110 =
b10 >
b0 ?
b10 @
b10 A
b10 B
b0 C
b111 D
b110011 E
b10011 F
b11 G
b100011 H
b1100011 I
b1111111 J
$end
#5000
1!
1$
#7000
b1 &
b101000000000000010010011 '
b1 (
#10000
0!
0$
#15000
1"
1%
b0 +
#17000
b101000000000000010010011 )
b1 *
b1 -
b111 .
#20000
0"
0%
#25000
1!
1$
#27000
b10 &
b1010000000000000100010011 '
b10 (
b111 /
b101000000000000010010011 1
#30000
0!
0$
#35000
1"
1%
b111 0
#37000
b1010000000000000100010011 )
b10 *
b10 -
b101000000000000010010011 5
#40000
0"
0%
#45000
1!
1$
#47000
b11 &
b1100100000000000110010011 '
b11 (
b1010000000000000100010011 1
#50000
0!
0$
#55000
1"
1%
#57000
b1100100000000000110010011 )
b11 *
b11 -
b1010000000000000100010011 5
#60000
0"
0%
#65000
1!
1$
#67000
b100 &
b11100111110001110110011 '
b100 (
b1100100000000000110010011 1
#70000
0!
0$
#75000
1"
1%
#77000
b11100111110001110110011 )
b100 *
bx +
b111 -
b1100100000000000110010011 5
#80000
0"
0%
#85000
1!
1$
#87000
b101 &
b101 (
b11100111110001110110011 1
#90000
0!
0$
#95000
1"
1%
#97000
b101 *
b11100111110001110110011 5
#100000
0"
0%
#105000
1!
1$
#107000
b110 &
b1000001000001000110011 '
b110 (
#110000
0!
0$
#115000
1"
1%
#117000
b1000001000001000110011 )
b110 *
b100 -
#120000
0"
0%
#125000
1!
1$
#127000
b111 &
b11100111110001110110011 '
b111 (
b1000001000001000110011 1
#130000
0!
0$
#135000
1"
1%
#137000
b11100111110001110110011 )
b111 *
b111 -
b1000001000001000110011 5
#140000
0"
0%
#145000
1!
1$
#147000
b1000 &
b1100100000001010110011 '
b1000 (
b11100111110001110110011 1
#150000
0!
0$
#155000
1"
1%
#157000
b1100100000001010110011 )
b1000 *
b101 -
b11100111110001110110011 5
#160000
0"
0%
#165000
1!
1$
#167000
b1001 &
b111000001111111 '
b1001 (
b1100100000001010110011 1
#170000
0!
0$
#175000
1"
1%
b0 +
b0 ,
#177000
b111000001111111 )
b1001 *
b0 -
b1100100000001010110011 5
#180000
0"
0%
#185000
1!
1$
#187000
b1010 &
bx '
b1010 (
b111000001111111 1
#190000
0!
0$
#195000
1"
1%
#197000
bx )
b1010 *
bx +
bx ,
bx -
b111000001111111 5
#200000
0"
0%
#205000
1!
1$
#207000
b1011 &
b1011 (
bx 1
#210000
0!
0$
#215000
1"
1%
#217000
b1011 *
bx 5
#220000
0"
0%
#225000
1!
1$
#227000
b1100 &
b1100 (
#230000
0!
0$
#235000
1"
1%
#237000
b1100 *
#240000
0"
0%
#245000
1!
1$
#247000
b1101 &
b1101 (
#250000
0!
0$
#255000
1"
1%
#257000
b1101 *
#260000
0"
0%
#265000
1!
1$
#267000
b1110 &
b1110 (
#270000
0!
0$
#275000
1"
1%
#277000
b1110 *
#280000
0"
b110 #
0%
#285000
1!
1$
#287000
b1111 &
b1111 (
#290000
0!
0$
#295000
1"
1%
#297000
b1111 *
